                      _
                     | |
   ___ _   _ _ __ ___| | ____ _   ___  ___ _ ____   _____ _ __
  / _ \ | | | '__/ _ \ |/ / _` | / __|/ _ \ '__\ \ / / _ \ '__|
 |  __/ |_| | | |  __/   < (_| | \__ \  __/ |   \ V /  __/ |
  \___|\__,_|_|  \___|_|\_\__,_| |___/\___|_|    \_/ \___|_|